{
    "class_name": "DishMaster",
    "class_overrides": [
      {
        "override_class": {
          "name": "Sim_dish_master_behaviour",
          "module_directory": "None",
          "module_name": "ska_sim_dishmaster.dish_master_behaviour",
          "class_name": "OverrideDish"
        }
      }
    ],
    "dynamicAttributes": [
      {
        "basicAttributeData": {
          "name": "achievedTargetLock",
          "unit": "",
          "label": "Achieved target lock",
          "description": "Indicates whether Dish is on target or not based on the pointing error and time period parameters defined in configureTargetLock.",
          "data_type": "Boolean",
          "data_format": "Scalar",
          "format": "",
          "data_shape": {
            "max_dim_x": 1,
            "max_dim_y": 0
          },
          "attributeInterlocks": {
            "writable": "READ"
          },
          "dataSimulationParameters": {
            "quantity_simulation_type": "ConstantQuantity"
          },
          "attributeControlSystem": {
            "display_level": "OPERATOR",
            "period": 1000
          }
        }
      },
      {
        "basicAttributeData": {
          "name": "azimuthOverWrap",
          "unit": "",
          "label": "azimuthOverWrap",
          "description": "Indicates that the Dish has moved beyond an azimuth wrap limit.",
          "data_type": "Boolean",
          "data_format": "Scalar",
          "format": "",
          "data_shape": {
            "max_dim_x": 1,
            "max_dim_y": 0
          },
          "attributeInterlocks": {
            "writable": "READ"
          },
          "dataSimulationParameters": {
            "quantity_simulation_type": "ConstantQuantity"
          },
          "attributeControlSystem": {
            "display_level": "OPERATOR",
            "period": 1000
          }
        }
      },
      {
        "basicAttributeData": {
          "name": "capturing",
          "unit": "",
          "label": "Data capturing",
          "description": "Indicates whether Dish is capturing data in the configured band or not.",
          "data_type": "Boolean",
          "data_format": "Scalar",
          "format": "",
          "data_shape": {
            "max_dim_x": 1,
            "max_dim_y": 0
          },
          "attributeInterlocks": {
            "writable": "READ"
          },
          "dataSimulationParameters": {
            "quantity_simulation_type": "ConstantQuantity"
          },
          "attributeControlSystem": {
            "display_level": "OPERATOR",
            "period": 1000
          }
        }
      },
      {
        "basicAttributeData": {
          "name": "versionId",
          "unit": "",
          "label": "version ID",
          "description": "Version Id of this device",
          "data_type": "String",
          "data_format": "Scalar",
          "format": "",
          "data_shape": {
            "max_dim_x": 1,
            "max_dim_y": 0
          },
          "attributeInterlocks": {
            "writable": "READ"
          },
          "dataSimulationParameters": {
            "quantity_simulation_type": "ConstantQuantity"
          },
          "attributeControlSystem": {
            "display_level": "OPERATOR",
            "period": 1000
          }
        }
      }
    ],
    "commands": [
      {
        "basicCommandData": {
          "name": "GetVersionInfo",
          "input_parameters": {
            "dtype_in": "Void",
            "doc_in": "",
            "dformat_in": "Scalar"
          },
          "output_parameters": {
            "dtype_out": "String",
            "doc_out": "Version strings",
            "dformat_out": "Scalar"
          }
        }
      }
    ]
  }
